{"success":true,"message":"All Hadist","data":{"current_page":1,"data":[{"id":42,"title":"Allah Maha Pengampun","source":"Arbain Nawawi","text":"\u0639\u064e\u0646\u0652 \u0623\u064e\u0646\u064e\u0633\u0650 \u0628\u0652\u0646\u0650 \u0645\u064e\u0627\u0644\u0650\u0643\u064d \u0631\u0636\u064a \u0627\u0644\u0644\u0647 \u0639\u0646\u0647 \u0642\u064e\u0627\u0644\u064e: \u0633\u064e\u0645\u0650\u0639\u0652\u062a\u064f \u0631\u064e\u0633\u064f\u0648\u0644\u064e \u0627\u0644\u0644\u0647\u0650 \u0635\u0644\u0649 \u0627\u0644\u0644\u0647 \u0639\u0644\u064a\u0647 \u0648\u0633\u0644\u0645 \u064a\u064e\u0642\u064f\u0648\u0644\u064f: \u0642\u064e\u0627\u0644\u064e \u0627\u0644\u0644\u0647\u064f \u062a\u0628\u0627\u0631\u0643 \u0648 \u062a\u064e\u0639\u064e\u0627\u0644\u064e\u0649: \u201c\u064a\u064e\u0627 \u0627\u0628\u0652\u0646\u064e \u0622\u064e\u062f\u064e\u0645\u064e \u0625\u0650\u0646\u0651\u064e\u0643\u064e \u0645\u064e\u0627 \u062f\u064e\u0639\u064e\u0648\u0652\u062a\u064e\u0646\u0650\u064a\u0652 \u0648\u064e\u0631\u064e\u062c\u064e\u0648\u0652\u062a\u064e\u0646\u0650\u064a\u0652 \u063a\u064e\u0641\u064e\u0631\u0652\u062a\u064f \u0644\u064e\u0643\u064e \u0639\u064e\u0644\u064e\u0649 \u0645\u064e\u0627 \u0643\u064e\u0627\u0646\u064e \u0641\u064a\u0643 \u0648\u064e\u0644\u0627 \u0623\u064f\u0628\u064e\u0627\u0644\u0650\u064a\u0652\u060c \u064a\u064e\u0627 \u0627\u0628\u0652\u0646\u064e \u0622\u064e\u062f\u064e\u0645\u064e \u0644\u064e\u0648 \u0628\u064e\u0644\u064e\u063a\u064e\u062a\u0652 \u0630\u064f\u0646\u064f\u0648\u0652\u0628\u064f\u0643\u064e \u0639\u064e\u0646\u064e\u0627\u0646\u064e \u0627\u0644\u0633\u0651\u064e\u0645\u064e\u0627\u0621\u0650 \u062b\u064f\u0645\u0651\u064e \u0627\u0633\u0652\u062a\u064e\u063a\u0652\u0641\u064e\u0631\u0652\u062a\u064e\u0646\u0650\u064a\u0652 \u063a\u064e\u0641\u064e\u0631\u0652\u062a\u064f \u0644\u064e\u0643\u064e \u0648 \u0644\u0627 \u0623\u0628\u0627\u0644\u064a\u060c \u064a\u064e\u0627 \u0627\u0628\u0652\u0646\u064e \u0622\u064e\u062f\u064e\u0645\u064e \u0625\u0650\u0646\u0651\u064e\u0643\u064e \u0644\u064e\u0648\u0652 \u0623\u064e\u062a\u064e\u064a\u0652\u062a\u064e\u0646\u0650\u064a\u0652 \u0628\u0650\u0642\u064f\u0631\u064e\u0627\u0628\u0650 \u0627\u0644\u0623\u064e\u0631\u0652\u0636\u0650 \u062e\u064e\u0637\u064e\u0627\u064a\u064e\u0627 \u062b\u064f\u0645\u0651\u064e \u0644\u0642\u0650\u064a\u0652\u062a\u064e\u0646\u0650\u064a\u0652 \u0644\u0627\u064e\u062a\u064f\u0634\u0652\u0631\u0650\u0643\u064f \u0628\u0650\u064a\u0652 \u0634\u064e\u064a\u0652\u0626\u064e\u0627\u064b \u0644\u0623\u064e\u062a\u064e\u064a\u0652\u062a\u064f\u0643\u064e \u0628\u0650\u0642\u064f\u0631\u064e\u0627\u0628\u0650\u0647\u064e\u0627 \u0645\u064e\u063a\u0641\u0650\u0631\u064e\u0629\u064b\u201d \u0631\u064e\u0648\u064e\u0627\u0647\u064f \u0627\u0644\u062a\u0651\u0650\u0631\u0652\u0645\u0650\u0630\u0650\u064a\u0651\u064f \u0648\u064e\u0642\u064e\u0627\u0644\u064e: \u062d\u064e\u062f\u0650\u064a\u0652\u062b\u064c \u062d\u064e\u0633\u064e\u0646\u064c \u0635\u064e\u062d\u064e\u064a\u0652\u062d\u064c","translation":"Dari Anas bin Malik radhiyallahu \u2018anhu dia berkata: \u2018Aku mendengar Rasulullah shallallahu \u2018alaihi wa sallam bersabda: \u201cAllah berfirman: \u201dWahai Bani Adam, sesungguhnya jika engkau senantiasa berdoa dan berharap kepada\u2013Ku niscaya Aku akan mengampunimu semua dosa yang ada padamu dan Aku tidak peduli. Wahai anak Adam kalau seandainya dosamu setinggi langit, kemudian engkau memohon ampun kepada\u2013 Ku, niscaya aku akan memberikan ampunan kepadamu dan Aku tidak peduli. Wahai anak Adam seandainya engkau menghadap kepada\u2013Ku dengan membawa dosa sepenuh bumi kemudian engkau berjumpa dengan\u2013Ku dalam keadaan tidak menyekutukanKu dengan sesuatu apapun, niscaya Aku akan mendatangimu dengan ampunan sepenuh bumi pula.\u201d (HR. At Tirmidzi)","category":"Shahih","noted":"Diriwayatkan oleh At Tirmidzi (3540), Ath Thabrani dalam al Ausath (4\/315) dari hadits Anas radhiyallahu \u2018anhu. Abu Isa (At Tirmidzi ) berkata: \u201cIni adalah hadits gharib (diriwayatkan dengan 1 jalan), tidaklah kami mengetahuinya kecuali hanya dari jalan ini.\u201d Diriwayatkan juga dari shahabat Abu Dzar radhiyallahu \u2018anhu oleh Ahmad dalam Musnadnya (5\/148), Ad Darimi (2788), Al Bazzar (9\/403), Al Hakim dalam al Mustadrak (4\/269), dan dia berkata: \u201cHadits ini sanadnya  shahih namun Al Imam Al Bukhari dan Muslim tidak mengeluarkannya.\u201d","created_at":"2023-09-22T04:33:53.000000Z","updated_at":"2023-09-22T04:33:53.000000Z"},{"id":41,"title":"Hingga Hawa Nafsunya Mengikuti Apa yang Aku Bawa","source":"Arbain Nawawi","text":"\u0639\u064e\u0646\u0652 \u0623\u064e\u0628\u0650\u064a\u0652 \u0645\u064f\u062d\u064e\u0645\u0651\u064e\u062f\u064d \u0639\u064e\u0628\u0652\u062f\u0650 \u0627\u0644\u0644\u0647\u0650 \u0628\u0650\u0646\u0650 \u0639\u0645\u0652\u0631\u0650\u0648 \u0628\u0652\u0646\u0650 \u0627\u0644\u0639\u064e\u0627\u0635\u0650 \u0631\u064e\u0636\u0650\u064a\u064e \u0627\u0644\u0644\u0647\u064f \u0639\u064e\u0646\u0652\u0647\u064f\u0645\u064e\u0627 \u0642\u064e\u0627\u0644\u064e: \u0642\u064e\u0627\u0644\u064e \u0631\u064e\u0633\u064f\u0648\u0644\u064f \u0627\u0644\u0644\u0647\u0650 \u0635\u0644\u0649 \u0627\u0644\u0644\u0647 \u0639\u0644\u064a\u0647 \u0648\u0633\u0644\u0645 : \u201c\u0644\u0627\u064e\u064a\u064f\u0624\u0652\u0645\u0650\u0646\u064f \u0623\u064e\u062d\u064e\u062f\u064f\u0643\u064f\u0645\u0652 \u062d\u064e\u062a\u0651\u064e\u0649 \u064a\u064e\u0643\u064f\u0648\u0646\u064e \u0647\u064e\u0648\u0627\u0647\u064f \u062a\u064e\u0628\u064e\u0639\u064e\u0627\u064b \u0644\u0650\u0645\u064e\u0627 \u062c\u0650\u0626\u0652\u062a\u064f \u0628\u0650\u0647\u0650\u201d \u062d\u064e\u062f\u0650\u064a\u0652\u062b\u064c \u062d\u064e\u0633\u064e\u0646\u064c \u0635\u064e\u062d\u0650\u064a\u0652\u062d\u064c \u0631\u064e\u0648\u064e\u064a\u0652\u0646\u064e\u0627\u0647\u064f \u0641\u0650\u064a \u0643\u0650\u062a\u064e\u0627\u0628\u0650 \u0627\u0644\u062d\u064f\u062c\u0651\u064e\u0629\u0650 \u0628\u0650\u0625\u0650\u0633\u0652\u0646\u064e\u0627\u062f\u064d \u0635\u064e\u062d\u0650\u064a\u0652\u062d\u064d","translation":"\u201cDari Abu Muhammad Abdullah  bin Amr bin Al Ash radhiyallahu \u2018anhuma, dia berkata: \u201dRasulullah shallallahu \u2018alaihi wa sallam bersabda: \u201dTidaklah sempurna keimanan salah seorang di antara kalian hingga hawa nafsunya mau mengikuti apa yang aku bawa.\u201d (Hadits hasan shahih, kami telah meriwayatkannya dari kitab Al Hujjah dengan sanad shahih)","category":"Shahih","noted":"Diriwayatkan oleh Al Baghawi dalam Syarhus Sunnah (1\/212) , Ibnu Abi \u2018Ashim dalam as Sunnah (1\/12), Al Baihaqi dalam al Madkhal Ilas Sunnan al Kubra (1\/88) dan dia berkata: \u201dNu\u2019aim bin Hammad bersendirian dalam meriwayatkan hadits ini\u201d, Al Khatib dalam Tarikh al Baghdad (4\/368). Lihat kritikan tentang lemahnya hadits ini dalam Jami\u2019ul \u2018Ulum Wal Hikam (hal 387\u2013388)","created_at":"2023-09-22T04:32:43.000000Z","updated_at":"2023-09-22T04:32:43.000000Z"},{"id":40,"title":"Jadilah Engkau di Dunia ini seperti Orang Asing","source":"Arbain Nawawi","text":"\u0639\u064e\u0646\u0650 \u0627\u0628\u0652\u0646\u0650 \u0639\u064f\u0645\u064e\u0631\u064e \u0631\u064e\u0636\u0650\u064a\u064e \u0627\u0644\u0644\u0647\u064f \u0639\u064e\u0646\u0652\u0647\u064f\u0645\u064e\u0627 \u0642\u064e\u0627\u0644\u064e: \u0623\u064e\u062e\u064e\u0630\u064e \u0631\u064e\u0633\u064f\u0648\u0644\u064f \u0627\u0644\u0644\u0647\u0650 \u0635\u0644\u0649 \u0627\u0644\u0644\u0647 \u0639\u0644\u064a\u0647 \u0648\u0633\u0644\u0645 \u0628\u0650\u0645\u0646\u0652\u0643\u0650\u0628\u064e\u064a\u0651\u064e \u0641\u064e\u0642\u064e\u0627\u0644\u064e: (\u0643\u064f\u0646\u0652 \u0641\u0650\u064a \u0627\u0644\u062f\u0651\u064f\u0646\u0652\u064a\u064e\u0627 \u0643\u064e\u0623\u064e\u0646\u0651\u064e\u0643\u064e \u063a\u064e\u0631\u0650\u064a\u0652\u0628\u064c \u0623\u064e\u0648\u0652 \u0639\u064e\u0627\u0628\u0650\u0631\u064f \u0633\u064e\u0628\u0650\u064a\u0652\u0644\u064d) \u0648\u064e\u0643\u064e\u0627\u0646\u064e \u0627\u0628\u0652\u0646\u064f \u0639\u064f\u0645\u064e\u0631\u064e \u0631\u064e\u0636\u0650\u064a\u064e \u0627\u0644\u0644\u0647\u064f \u0639\u064e\u0646\u0652\u0647\u064f\u0645\u064e\u0627 \u064a\u064e\u0642\u064f\u0648\u0652\u0644\u064f: \u0625\u0650\u0630\u064e\u0627 \u0623\u064e\u0645\u0652\u0633\u064e\u064a\u0652\u062a\u064e \u0641\u064e\u0644\u0627 \u062a\u064e\u0646\u0652\u062a\u064e\u0638\u0650\u0631\u0650 \u0627\u0644\u0635\u0651\u064e\u0628\u064e\u0627\u062d\u064e\u060c \u0648\u064e\u0625\u0650\u0630\u064e\u0627 \u0623\u064e\u0635\u0652\u0628\u064e\u062d\u0652\u062a\u064e \u0641\u064e\u0644\u0627 \u062a\u064e\u0646\u0652\u062a\u064e\u0638\u0650\u0631\u0650 \u0627\u0644\u0645\u064e\u0633\u064e\u0627\u0621\u064e. \u0648\u064e\u062e\u064f\u0630\u0652 \u0645\u0650\u0646\u0652 \u0635\u0650\u062d\u0651\u064e\u062a\u0650\u0643\u064e \u0644\u0650\u0645\u064e\u0631\u064e\u0636\u0650\u0643\u064e\u060c \u0648\u064e\u0645\u0650\u0646\u0652 \u062d\u064e\u064a\u064e\u0627\u062a\u0650\u0643\u064e \u0644\u0645\u064e\u0648\u0652\u062a\u0650\u0643\u064e. \u0631\u064e\u0648\u064e\u0627\u0647\u064f \u0627\u0644\u0652\u0628\u064f\u062e\u064e\u0627\u0631\u0650\u064a\u0651\u064f\"","translation":"Dari Ibnu Umar radhiyallahu \u2018anhuma dia berkata: \u201cSuatu hari Rasulullah shallallahu \u2018alaihi wa sallam memegang kedua pundakku seraya bersabda: \u201dJadilah engkau di dunia ini seperti orang asing atau pengembara\u201d. Maka Ibnu \u2018Umar radhiyallahu \u2018anhuma menyatakan: \u201cJika engkau berada di sore hari janganlah engkau menunggu datangnya esok hari. Jika engkau berada di pagi hari, janganlah engkau menunggu datangnya sore hari. Pergunakanlah masa sehatmu untuk menghadapi masa sakitmu, dan masa hidupmu untuk menghadapi masa kematianmu.\u201d (HR. Al Bukhari)\"","category":"Shahih","noted":"Diriwayatkan oleh al Bukhari  (6416)\"","created_at":"2023-09-22T04:31:18.000000Z","updated_at":"2023-09-22T04:31:37.000000Z"},{"id":39,"title":"Allah Mengampuni Siapa yang Bersalah dan Lupa","source":"Arbain Nawawi","text":"\u0639\u064e\u0646\u0650 \u0627\u0628\u0652\u0646\u0650 \u0639\u064e\u0628\u0651\u064e\u0627\u0633\u064d \u0631\u064e\u0636\u0650\u064a\u064e \u0627\u0644\u0644\u0647\u064f \u0639\u064e\u0646\u0652\u0647\u064f\u0645\u064e\u0627 \u0623\u064e\u0646\u0651\u064e \u0631\u064e\u0633\u064f\u0648\u0644\u064e \u0627\u0644\u0644\u0647\u0650 \u0635\u0644\u0649 \u0627\u0644\u0644\u0647 \u0639\u0644\u064a\u0647 \u0648\u0633\u0644\u0645 \u0642\u064e\u0627\u0644: (\u0625\u0650\u0646\u0651\u064e \u0627\u0644\u0644\u0647\u064e \u062a\u064e\u062c\u064e\u0627\u0648\u064e\u0632\u064e \u0644\u0650\u064a \u0639\u064e\u0646\u0652 \u0623\u064f\u0645\u0651\u064e\u062a\u0650\u064a \u0627\u0644\u0652\u062e\u064e\u0637\u064e\u0623\u064e \u0648\u064e\u0627\u0644\u0646\u0651\u0650\u0633\u0652\u064a\u064e\u0627\u0646\u064e \u0648\u064e\u0645\u064e\u0627 \u0627\u0633\u0652\u062a\u064f\u0643\u0652\u0631\u0650\u0647\u064f\u0648\u0652\u0627 \u0639\u064e\u0644\u064e\u064a\u0652\u0647\u0650) \u062d\u064e\u062f\u0650\u064a\u0652\u062b\u064c \u062d\u064e\u0633\u064e\u0646\u064c \u0631\u064e\u0648\u064e\u0627\u0647\u064f \u0627\u0628\u0652\u0646\u064f \u0645\u064e\u0627\u062c\u064e\u0647 \u0648\u064e\u0627\u0652\u0644\u0628\u064e\u064a\u0652\u0647\u064e\u0642\u0650\u064a\u0651 \u0648\u064e\u063a\u064e\u064a\u0652\u0631\u064f\u0647\u064f\u0645\u064e\u0627","translation":"Dari Ibnu Abbas radhiyallahu \u2018anhuma bahwa Rasulullah shallallahu \u2018alaihi wa sallam bersabda: \u201cSesungguhnya Allah membiarkan(mengampuni) kesalahan dari umatku akibat kekeliruan dan lupa serta keterpaksaan.\u201d (Hadits Hasan diriwayatkan oleh Ibnu Majah dan Al Baihaqi serta selain keduanya)","category":"Shahih","noted":"Diriwayatkan oleh Ibnu Majah (2045), Ibnu Hibban dalam Shahihnya (16\/202), Ath Thabrani dalam al Kabir (11274), Al Hakim dalam al Mustadrak (2\/216) , Ad Daruquthni dalam Sunannya (4\/170) dan Al Baihaqi dalam al Kubra (7\/356)","created_at":"2023-09-22T04:30:17.000000Z","updated_at":"2023-09-22T04:30:17.000000Z"},{"id":38,"title":"Cara Mendapatkan Kecintaan AllahCara Mendapatkan Kecintaan Allah","source":"Arbain Nawawi","text":"\u0639\u064e\u0646\u0652 \u0623\u064e\u0628\u0650\u064a \u0647\u064f\u0631\u064e\u064a\u0652\u0631\u064e\u0629\u064e \u0631\u0636\u064a \u0627\u0644\u0644\u0647 \u0639\u0646\u0647 \u0642\u064e\u0627\u0644\u064e: \u0642\u064e\u0627\u0644\u064e \u0631\u064e\u0633\u064f\u0648\u0644\u064f \u0627\u0644\u0644\u0647\u0650 \u0635\u0644\u0649 \u0627\u0644\u0644\u0647 \u0639\u0644\u064a\u0647 \u0648\u0633\u0644\u0645: (\u0625\u0650\u0646\u0651\u064e \u0627\u0644\u0644\u0647\u064e \u062a\u064e\u0639\u064e\u0627\u0644\u064e\u0649 \u0642\u064e\u0627\u0644\u064e: \u0645\u064e\u0646\u0652 \u0639\u064e\u0627\u062f\u064e\u0649 \u0644\u0650\u064a \u0648\u064e\u0644\u0650\u064a\u0651\u064e\u0627\u064b \u0641\u064e\u0642\u064e\u062f\u0652 \u0622\u0630\u064e\u0646\u0652\u062a\u064f\u0647\u064f \u0628\u0650\u0627\u0644\u062d\u064e\u0631\u0652\u0628\u0650. \u0648\u064e\u0645\u064e\u0627 \u062a\u064e\u0642\u064e\u0631\u0651\u064e\u0628\u064e \u0625\u0650\u0644\u0650\u064a\u0651\u064e \u0639\u064e\u0628\u0652\u062f\u0650\u064a\u0652 \u0628\u0650\u0634\u064e\u064a\u0621\u064d \u0623\u064e\u062d\u064e\u0628\u0651\u064e \u0625\u0650\u0644\u0650\u064a\u0651\u064e \u0645\u0650\u0645\u0651\u064e\u0627 \u0627\u0641\u0652\u062a\u064e\u0631\u064e\u0636\u0652\u062a\u064f\u0647\u064f \u0639\u064e\u0644\u064e\u064a\u0652\u0647\u0650. \u0648\u0644\u0627\u064a\u064e\u0632\u064e\u0627\u0644\u064f \u0639\u064e\u0628\u0652\u062f\u0650\u064a\u0652 \u064a\u064e\u062a\u064e\u0642\u064e\u0631\u0651\u064e\u0628\u064f \u0625\u0650\u0644\u064e\u064a\u0651\u064e \u0628\u0650\u0627\u0644\u0646\u0651\u064e\u0648\u064e\u0627\u0641\u0650\u0644\u0650 \u062d\u064e\u062a\u0651\u064e\u0649 \u0623\u064f\u062d\u0650\u0628\u0651\u064e\u0647\u064f\u060c \u0641\u064e\u0625\u0650\u0630\u064e\u0627 \u0623\u064e\u062d\u0652\u0628\u064e\u0628\u062a\u064f\u0647\u064f \u0643\u064f\u0646\u0652\u062a\u064f \u0633\u064e\u0645\u0652\u0639\u064e\u0647\u064f \u0627\u0644\u0651\u064e\u0630\u0650\u064a\u0652 \u064a\u064e\u0633\u0652\u0645\u064e\u0639\u064f \u0628\u0650\u0647\u0650\u060c \u0648\u064e\u0628\u064e\u0635\u064e\u0631\u064e\u0647\u064f \u0627\u0644\u0651\u064e\u0630\u0650\u064a\u0652 \u064a\u064f\u0628\u0652\u0635\u0650\u0631\u064f \u0628\u0650\u0647\u0650\u060c \u0648\u064e\u064a\u064e\u062f\u064e\u0647\u064f \u0627\u0644\u0651\u064e\u062a\u0650\u064a \u064a\u064e\u0628\u0652\u0637\u0650\u0634\u064f \u0628\u0650\u0647\u064e\u0627\u060c \u0648\u064e\u0631\u0650\u062c\u0652\u0644\u064e\u0647\u064f \u0627\u0644\u0651\u064e\u062a\u0650\u064a \u064a\u064e\u0645\u0652\u0634\u0650\u064a\u0652 \u0628\u0650\u0647\u064e\u0627. \u0648\u064e\u0644\u064e\u0626\u0650\u0646\u0652 \u0633\u064e\u0623\u064e\u0644\u064e\u0646\u0650\u064a\u0652 \u0644\u0623\u064f\u0639\u0637\u0650\u064a\u064e\u0646\u0651\u064e\u0647\u064f\u060c \u0648\u064e\u0644\u064e\u0626\u0650\u0646\u0652 \u0627\u0633\u0652\u062a\u064e\u0639\u064e\u0627\u0630\u064e\u0646\u0650\u064a\u0652 \u0644\u0623\u064f\u0639\u0650\u064a\u0652\u0630\u064e\u0646\u0651\u064e\u0647\u064f) \u0631\u064e\u0648\u064e\u0627\u0647\u064f \u0627\u0652\u0644\u0628\u064f\u062e\u064e\u0627\u0631\u0650\u064a\u0651\u064f","translation":"Dari Abu Hurairah radhiyallahu \u2018anhu, dia berkata: \u2018Rasulullah shallallahu \u2018alaihi wa sallam bersabda: \u201cSesungguhnya Allah berfirman: \u201dBarangsiapa yang memusuhi wali-Ku, maka Aku menyatakan perang kepadanya. Tidaklah seorang hamba\u2013Ku mendekatkan diri kepada\u2013Ku dengan sesuatu yang lebih  Aku cintai daripada hal\u2013hal yang telah Aku wajibkan baginya. Senantiasa hamba\u2013Ku mendekatkan diri kepada\u2013Ku dengan amalan\u2013amalan nafilah (sunnah) hingga Aku mencintainya. Apabila Aku telah mencintainya maka Aku menjadi pendengarannya yang dia gunakan untuk mendengar, Aku menjadi penglihatannya yang dia gunakan untuk melihat, Aku menjadi tangannya yang dia gunakan untuk memegang  dan Aku menjadi kakinya yang dia gunakan untuk melangkah. Jika dia meminta kepada\u2013Ku pasti Aku memberinya dan jika dia meminta perlindungan kepada\u2013Ku pasti Aku akan melindunginya.\u201d (HR. Al Bukhari)","category":"Shahih","noted":"Diriwayatkan oleh al Bukhari (6502)","created_at":"2023-09-22T04:29:11.000000Z","updated_at":"2023-09-22T04:29:11.000000Z"}],"first_page_url":"http:\/\/localhost:8000\/api\/hadist?page=1","from":1,"last_page":9,"last_page_url":"http:\/\/localhost:8000\/api\/hadist?page=9","links":[{"url":null,"label":"&laquo; Previous","active":false},{"url":"http:\/\/localhost:8000\/api\/hadist?page=1","label":"1","active":true},{"url":"http:\/\/localhost:8000\/api\/hadist?page=2","label":"2","active":false},{"url":"http:\/\/localhost:8000\/api\/hadist?page=3","label":"3","active":false},{"url":"http:\/\/localhost:8000\/api\/hadist?page=4","label":"4","active":false},{"url":"http:\/\/localhost:8000\/api\/hadist?page=5","label":"5","active":false},{"url":"http:\/\/localhost:8000\/api\/hadist?page=6","label":"6","active":false},{"url":"http:\/\/localhost:8000\/api\/hadist?page=7","label":"7","active":false},{"url":"http:\/\/localhost:8000\/api\/hadist?page=8","label":"8","active":false},{"url":"http:\/\/localhost:8000\/api\/hadist?page=9","label":"9","active":false},{"url":"http:\/\/localhost:8000\/api\/hadist?page=2","label":"Next &raquo;","active":false}],"next_page_url":"http:\/\/localhost:8000\/api\/hadist?page=2","path":"http:\/\/localhost:8000\/api\/hadist","per_page":5,"prev_page_url":null,"to":5,"total":42}}